6991 422938 449
474959 990928 525
158104 935356 525
167718 630379 509
941342 981644 458
201614 298004 443
416569 549329 470
902450 942509 507
361752 665895 509
121144 471429 449
563965 742631 509
457715 620390 470
322905 384657 441
575586 602695 434
593345 963715 525
141163 446411 449
256631 373659 441
108326 209864 383
260522 706579 509
287114 291828 389
122082 905236 525
140680 945814 525
437809 498792 444
591904 635047 509
396106 565773 470
398034 762493 509
175936 325362 443
656451 977303 525
359920 954073 525
573525 984254 525
348271 586375 470
9118 463332 449
99498 455720 449
526633 707937 509
620139 778935 509
340172 989569 525
50492 503104 449
201480 650168 509
243663 765270 509
191227 336819 443
168261 720784 509
383747 569131 470
495932 866763 525
26552 218862 386
136886 638048 509
579570 630643 509
607514 611772 403
476637 936683 525
120628 136109 344
380187 382447 379
59156 325895 443
280135 645654 509
563456 736427 509
23201 108121 354
373349 660017 509
687193 824349 504
106877 625937 470
235929 771915 509
320895 325834 384
879527 917819 476
125747 368188 443
315856 722112 509
424641 434198 387
818082 829685 450
139862 463129 449
740246 979872 525
768997 878259 525
645613 997390 525
354525 495453 449
148128 382408 443
942888 954138 414
396661 805489 509
726212 729097 362
73211 365529 443
114573 435849 449
131662 785038 509
433045 438008 387
429685 846061 525
202091 772126 509
253703 731481 509
88085 277601 443
175098 330433 443
891688 963432 507
189891 200097 360
560451 619963 447
89998 821899 509
319345 956128 525
40871 343136 443
47727 886106 525
199049 548265 470
470540 497695 426
66275 208912 383
349642 740862 509
171713 327658 443
56492 599390 470
220104 411405 449
22580 164450 383
342080 954207 525
166539 639544 509
640396 660151 429
212437 947959 525
299256 374055 441
620655 670541 509
75712 659677 509
104168 229260 386
706956 802178 468
184121 428995 449
51657 889585 525
687540 805935 504
348413 761360 509
23991 989991 525
281442 877758 525
47839 535376 470
376073 603196 470
647839 704710 504
226432 688132 509
114195 904802 525
161295 235045 443
435314 945273 525
363225 742075 509
345268 777665 509
242426 589139 470
309868 965106 525
321525 697957 509
303804 528140 470
389923 758435 509
588429 835411 509
615502 847740 525
614611 788065 509
601027 899400 525
325459 422208 449
408677 544731 470
758230 910139 525
90131 252082 443
216191 667895 509
761145 881825 525
328891 848608 525
465125 528780 470
166218 251235 443
276526 891194 525
32163 245281 443
71130 402812 443
286235 510926 449
568388 928074 525
164993 437295 449
491716 994581 525
149044 309310 443
410200 934897 525
95883 427472 449
249038 828730 509
102514 785419 509
264604 640345 509
715610 798514 468
133181 726794 509
82346 788601 509
182685 905193 525
75111 428168 449
401155 789923 509
623286 965269 525
340143 392992 441
163362 855585 525
243874 512052 470
344945 913165 525
351691 908846 525
485630 750332 509
243400 532945 470
25761 506725 449
176598 408228 443
340137 425770 449
569084 690361 509
61074 646846 509
394577 397230 405
842724 941081 507
4206 806215 509
503212 966606 525
70887 323038 443
256168 393941 441
92301 102514 341
222545 807523 509
745703 780332 468
118062 773593 509
517707 737658 509
507283 578910 470
665459 788548 504
268156 521976 470
21169 290582 443
113566 402284 443
265859 527388 470
239996 277526 407
115416 581885 470
116863 271039 443
479668 959022 525
553300 563793 421
274642 447804 449
166499 935251 525
800680 908812 525
245540 272009 407
337984 650565 509
435652 563413 470
155883 856070 525
94062 680637 509
372126 845086 525
683318 925213 525
6787 486074 449
942539 976365 458
256227 975215 525
420317 503705 444
142443 355040 443
242077 688933 509
205497 322300 443
216847 731728 509
56830 788975 509
784593 890112 525
420843 761785 509
817270 929391 525
597007 805523 509
1800 390502 443
727624 901280 525
674559 944704 525
270116 993746 525
142939 877520 525
590830 624963 447
216848 835027 509
271363 692869 509
73433 639322 509
552456 746795 509
118986 495911 449
42869 678776 509
394014 826077 509
342971 431907 449
191509 915167 525
2188 332892 443
382462 549964 470
253161 648335 509
343674 896627 525
216798 935580 525
584249 801004 509
103822 902650 525
279522 957984 525
276064 912972 525
738601 926949 525
389735 878634 525
468028 763298 509
475828 676346 509
522704 775570 509
157981 635143 509
54840 575069 470
672713 827120 504
7390 521829 470
526542 644093 509
165430 254131 443
77548 511500 449
85151 779901 509
15142 546786 470
193952 492772 449
134259 841206 525
320468 614706 470
430924 890332 525
110213 333525 443
858156 860448 370
128900 925850 525
284509 646149 509
226280 717711 509
486906 522142 470
571220 922132 525
437910 640162 509
355135 630722 509
131514 247728 443
735980 970760 525
568221 699091 509
156475 462658 449
159169 680619 509
134238 701627 509
819347 991211 525
322612 580030 470
147577 346816 443
567446 648764 509
669681 827901 504
503405 839446 525
366988 602755 470
898148 959142 507
246295 373369 441
311813 912525 525
334052 788797 509
21520 612438 470
729111 883247 525
589483 728073 509
198520 842673 525
460158 577243 470
433811 584634 470
344808 993076 525
490875 543558 470
905171 950443 507
698493 702398 411
575365 659659 509
290747 911790 525
62284 569627 470
393340 940884 525
72217 88003 351
50389 780860 509
